^C:\USERS\BENCE\DOCUMENTS\VISUAL STUDIO 2015\PROJECTS\KOTPROG\KOTPROG\MAIN.CPP
/c /ZI /nologo /W3 /WX- /sdl /Od /Oy- /D _MBCS /Gm /EHsc /RTC1 /MDd /GS /fp:precise /Zc:wchar_t /Zc:forScope /Zc:inline /Fo"DEBUG\\" /Fd"DEBUG\VC140.PDB" /Gd /TP /analyze- C:\USERS\BENCE\DOCUMENTS\VISUAL STUDIO 2015\PROJECTS\KOTPROG\KOTPROG\MAIN.CPP
^C:\USERS\BENCE\DOCUMENTS\VISUAL STUDIO 2015\PROJECTS\KOTPROG\KOTPROG\JATEKOS.CPP
/c /ZI /nologo /W3 /WX- /sdl /Od /Oy- /D _MBCS /Gm /EHsc /RTC1 /MDd /GS /fp:precise /Zc:wchar_t /Zc:forScope /Zc:inline /Fo"DEBUG\\" /Fd"DEBUG\VC140.PDB" /Gd /TP /analyze- C:\USERS\BENCE\DOCUMENTS\VISUAL STUDIO 2015\PROJECTS\KOTPROG\KOTPROG\JATEKOS.CPP
^C:\USERS\BENCE\DOCUMENTS\SULI\III. SZEMESZTER\PROG II\KOTPROG-SAJAT\KOTPROG\KOTPROG\JATEKOS.CPP
/c /ZI /nologo /W3 /WX- /sdl /Od /Oy- /D _MBCS /Gm /EHsc /RTC1 /MDd /GS /fp:precise /Zc:wchar_t /Zc:forScope /Zc:inline /Fo"DEBUG\\" /Fd"DEBUG\VC140.PDB" /Gd /TP /analyze- C:\USERS\BENCE\DOCUMENTS\SULI\III. SZEMESZTER\PROG II\KOTPROG-SAJAT\KOTPROG\KOTPROG\JATEKOS.CPP
^C:\USERS\BENCE\DOCUMENTS\SULI\III. SZEMESZTER\PROG II\KOTPROG-SAJAT\KOTPROG\KOTPROG\MAIN.CPP
/c /ZI /nologo /W3 /WX- /sdl /Od /Oy- /D _MBCS /Gm /EHsc /RTC1 /MDd /GS /fp:precise /Zc:wchar_t /Zc:forScope /Zc:inline /Fo"DEBUG\\" /Fd"DEBUG\VC140.PDB" /Gd /TP /analyze- C:\USERS\BENCE\DOCUMENTS\SULI\III. SZEMESZTER\PROG II\KOTPROG-SAJAT\KOTPROG\KOTPROG\MAIN.CPP
